<svg xmlns="http://www.w3.org/2000/svg" xmlns:xlink="http://www.w3.org/1999/xlink" id="Capa_1" x="0px" y="0px" width="192px" height="31.9px" viewBox="0 0 192 31.9" style="enable-background:new 0 0 192 31.9;" xml:space="preserve">
<g>
	<g>
		<path d="M0.4,21.5c0-2.8,1-5.3,2.9-7.2c2-1.9,4.4-2.9,7.3-2.9c2.9,0,5.3,1,7.3,2.9s2.9,4.3,2.9,7.2s-1,5.3-2.9,7.2    s-4.4,2.8-7.3,2.8c-2.9,0-5.3-0.9-7.3-2.8C1.4,26.8,0.4,24.4,0.4,21.5z M15.1,21.5c0-2.6-2-4.6-4.5-4.6c-2.5,0-4.5,2-4.5,4.6    s2,4.6,4.5,4.6C13.2,26.1,15.1,24.1,15.1,21.5z"></path>
		<path d="M23.5,12H29v1.9c1.3-1.6,3.1-2.4,5.2-2.4c2.1,0,3.8,0.7,5.2,2.1c1.4,1.4,2.1,3.1,2.1,5.2v12.3H36V20.3    c0-2.1-1.5-3.7-3.5-3.7c-2,0-3.5,1.6-3.5,3.7v10.8h-5.5V12z"></path>
		<path d="M50,23.5c0.6,2,2.4,3.4,4.7,3.4c1.6,0,2.8-0.6,3.8-1.7l5.3,1.2c-1.7,3.2-5.1,5.2-9.2,5.2c-3,0-5.4-0.9-7.4-2.8    c-2-1.9-3-4.3-3-7.2s1-5.3,2.9-7.2c2-1.9,4.4-2.9,7.2-2.9c2.8,0,5.3,1,7.2,2.9c2,1.9,2.9,4.3,2.9,7.2c0,0.8,0,1.4-0.2,2H50z     M58.8,19.4c-0.6-1.9-2.4-3.2-4.5-3.2c-1.9,0-3.7,1.3-4.3,3.2H58.8z"></path>
		<path d="M86.6,31.1V12h5.5v1.7c1.2-1.5,2.9-2.2,5-2.2c2.5,0,4.4,1,5.8,2.9c1.2-2,3.2-2.9,5.8-2.9c2.1,0,3.8,0.7,5.2,2    s2.1,3.1,2.1,5.1v12.5h-5.5v-11c0-2-1.4-3.4-3.2-3.4c-1.8,0-3.2,1.5-3.2,3.4v11h-5.5v-11c0-2-1.4-3.4-3.2-3.4    c-1.8,0-3.2,1.5-3.2,3.4v11H86.6z"></path>
		<path d="M124.5,23.5c0.6,2,2.4,3.4,4.7,3.4c1.6,0,2.8-0.6,3.8-1.7l5.3,1.2c-1.7,3.2-5.1,5.2-9.2,5.2c-3,0-5.4-0.9-7.4-2.8    c-2-1.9-3-4.3-3-7.2s1-5.3,2.9-7.2c2-1.9,4.4-2.9,7.2-2.9c2.8,0,5.3,1,7.2,2.9c2,1.9,2.9,4.3,2.9,7.2c0,0.8,0,1.4-0.2,2H124.5z     M133.3,19.4c-0.6-1.9-2.4-3.2-4.5-3.2c-1.9,0-3.7,1.3-4.3,3.2H133.3z"></path>
		<path d="M155,13.3V0.3h5.5v30.8H155v-1.3c-1.5,1.2-3.3,1.8-5.3,1.8c-2.6,0-4.7-0.9-6.5-2.8c-1.7-1.9-2.6-4.3-2.6-7.2    s0.8-5.3,2.6-7.2c1.7-1.9,3.9-2.9,6.5-2.9C151.7,11.5,153.5,12.1,155,13.3z M150.7,26.1c2.4,0,4.2-2,4.2-4.6    c0-2.5-1.9-4.6-4.2-4.6c-2.4,0-4.2,2-4.2,4.6C146.4,24.1,148.3,26.1,150.7,26.1z"></path>
		<path d="M163.7,31.1V12h5.5v19.1H163.7z"></path>
		<path d="M186.1,13.3V12h5.5v19.1h-5.5v-1.3c-1.5,1.2-3.3,1.8-5.3,1.8c-2.6,0-4.7-0.9-6.5-2.8c-1.7-1.9-2.6-4.3-2.6-7.2    s0.8-5.3,2.6-7.2c1.7-1.9,3.9-2.9,6.5-2.9C182.8,11.5,184.6,12.1,186.1,13.3z M181.8,26.1c2.4,0,4.2-2,4.2-4.6    c0-2.5-1.9-4.6-4.2-4.6c-2.4,0-4.2,2-4.2,4.6C177.5,24.1,179.4,26.1,181.8,26.1z"></path>
	</g>
	<g>
		<polygon points="79.2,19.4 84.4,12 77.9,12 75.9,14.9   "></polygon>
		<polygon points="71.1,12 64.7,12 71.2,21.2 64.2,31.1 70.7,31.1 74.5,25.5 78.3,31.1 84.7,31.1   "></polygon>
	</g>
</g>
</svg>